SAGE_TMP_ROOT = /home/sage/.sage/temp/7ec802918160
Starting sage-cleaner with PID 38
Checking PIDs []
Checking PIDs []
Checking PIDs []
Checking PIDs [45]
Checking PIDs [45]
Checking PIDs [45]
Checking PIDs [45]
Checking PIDs [45]
Checking PIDs [45]
Checking PIDs [45]
Checking PIDs [45]
Checking PIDs [45]
Checking PIDs [45]
Checking PIDs [45]
Checking PIDs [45]
Checking PIDs [45]
Checking PIDs [45]
Checking PIDs [45]
Checking PIDs [45]
Checking PIDs [45]
Checking PIDs [45]
Checking PIDs [45]
Checking PIDs [45]
Checking PIDs [45]
Checking PIDs [45]
Checking PIDs [45]
Checking PIDs [45]
Checking PIDs [45]
Checking PIDs [45]
Checking PIDs [45]
Checking PIDs [45]
Checking PIDs [45]
Checking PIDs [45]
Checking PIDs [45]
Checking PIDs [45]
Checking PIDs [45]
Checking PIDs [45]
Checking PIDs [45]
Checking PIDs [45]
Checking PIDs [45]
Checking PIDs [45]
Checking PIDs [45]
Checking PIDs [45]
Checking PIDs [45]
Checking PIDs [45]
Checking PIDs [45]
Checking PIDs [45]
Checking PIDs [45]
Checking PIDs [45]
Checking PIDs [45]
Checking PIDs [45]
Checking PIDs [45]
Checking PIDs [45]
Checking PIDs [45]
Checking PIDs [45]
Checking PIDs [45]
Checking PIDs [45]
Checking PIDs [45]
Checking PIDs [45]
Checking PIDs [45]
Checking PIDs [45]
Checking PIDs [45]
Checking PIDs [45]
Checking PIDs [45]
Checking PIDs [45]
Checking PIDs [45]
Checking PIDs [45]
Checking PIDs [45]
Checking PIDs [45]
Checking PIDs [45]
Checking PIDs [45]
Checking PIDs [45]
Checking PIDs [45]
Checking PIDs [45]
Checking PIDs [45]
Checking PIDs [45]
Checking PIDs [45]
Checking PIDs [45]
Checking PIDs [45]
Checking PIDs [45]
Checking PIDs [45]
Checking PIDs [45]
Checking PIDs [45]
Checking PIDs [45]
Checking PIDs [45]
Checking PIDs [45]
Checking PIDs [45]
Checking PIDs [45]
Checking PIDs [45]
Checking PIDs [45]
Checking PIDs [45]
Checking PIDs [45]
Checking PIDs [45]
Checking PIDs [45]
Checking PIDs [45]
Checking PIDs [45]
Checking PIDs [45]
Checking PIDs [45]
Checking PIDs [45]
Checking PIDs [45]
Checking PIDs [45]
Checking PIDs [45]
Checking PIDs [45]
Checking PIDs [45]
Checking PIDs [45]
Checking PIDs [45]
Checking PIDs [45]
Checking PIDs [45]
Checking PIDs [45]
Checking PIDs [45]
Checking PIDs [45]
Checking PIDs [45]
Checking PIDs [45]
Checking PIDs [45]
Checking PIDs [45]
Checking PIDs [45]
Checking PIDs [45]
Checking PIDs [45]
Checking PIDs [45]
Checking PIDs [45]
Checking PIDs [45]
Checking PIDs [45]
Checking PIDs [45]
Checking PIDs [45]
Checking PIDs [45]
Checking PIDs [45]
Checking PIDs [45]
Checking PIDs [45]
Checking PIDs [45]
Checking PIDs [45]
Checking PIDs [45]
Checking PIDs [45]
Checking PIDs [45]
Checking PIDs [45]
Checking PIDs [45]
Checking PIDs [45]
Checking PIDs [45]
Checking PIDs [45]
Checking PIDs [45]
Checking PIDs [45]
Checking PIDs [45]
Checking PIDs [45]
Checking PIDs [45]
Checking PIDs [45]
Checking PIDs [45]
Checking PIDs [45]
Checking PIDs [45]
Checking PIDs [45]
Checking PIDs [45]
Checking PIDs [45]
Checking PIDs [45]
Checking PIDs [45]
Checking PIDs [45]
Checking PIDs [45]
Checking PIDs [45]
Checking PIDs [45]
Checking PIDs [45]
Checking PIDs [45]
Checking PIDs [45]
Checking PIDs [45]
Checking PIDs [45]
Checking PIDs [45]
Checking PIDs [45]
Checking PIDs [45]
Checking PIDs [45]
Checking PIDs [45]
Checking PIDs [45]
Checking PIDs [45]
Checking PIDs [45]
Checking PIDs [45]
Checking PIDs [45]
Checking PIDs [45]
Checking PIDs [45]
Checking PIDs [45]
Checking PIDs [45]
Checking PIDs [45]
Checking PIDs [45]
Checking PIDs [45]
Checking PIDs [45]
Checking PIDs [45]
Checking PIDs [45]
Checking PIDs [45]
Checking PIDs [45]
Checking PIDs [45]
Checking PIDs [45]
Checking PIDs [45]
Checking PIDs [45]
Checking PIDs [45]
Checking PIDs [45]
Checking PIDs [45]
Checking PIDs [45]
Checking PIDs [45]
Checking PIDs [45]
Checking PIDs [45]
Checking PIDs [45]
Checking PIDs [45]
Checking PIDs [45]
Checking PIDs [45]
Checking PIDs [45]
Checking PIDs [45]
Checking PIDs [45]
Checking PIDs [45]
Checking PIDs [45]
Checking PIDs [45]
Checking PIDs [45]
Checking PIDs [45]
Checking PIDs [45]
Checking PIDs [45]
Checking PIDs [45]
Checking PIDs [45]
Checking PIDs [45]
