{
  "stdin_port": 51281, 
  "ip": "127.0.0.1", 
  "control_port": 40565, 
  "hb_port": 33497, 
  "signature_scheme": "hmac-sha256", 
  "key": "add639af-4bf6be3fa15235ed85811625", 
  "kernel_name": "", 
  "shell_port": 34257, 
  "transport": "tcp", 
  "iopub_port": 35899
}