{
  "stdin_port": 51655, 
  "ip": "127.0.0.1", 
  "control_port": 35757, 
  "hb_port": 60591, 
  "signature_scheme": "hmac-sha256", 
  "key": "a16dd98f-4d655d67d682068992339c9e", 
  "kernel_name": "", 
  "shell_port": 48477, 
  "transport": "tcp", 
  "iopub_port": 33761
}