{
  "stdin_port": 37427, 
  "ip": "127.0.0.1", 
  "control_port": 33481, 
  "hb_port": 45555, 
  "signature_scheme": "hmac-sha256", 
  "key": "78937873-b065ce15855ad59e32823b74", 
  "kernel_name": "", 
  "shell_port": 41093, 
  "transport": "tcp", 
  "iopub_port": 54949
}