{
  "stdin_port": 47193, 
  "ip": "127.0.0.1", 
  "control_port": 38369, 
  "hb_port": 41735, 
  "signature_scheme": "hmac-sha256", 
  "key": "dc9e987a-1a2bb7a5aabe86fe9ca40815", 
  "kernel_name": "", 
  "shell_port": 56763, 
  "transport": "tcp", 
  "iopub_port": 60683
}