{
  "stdin_port": 52941, 
  "ip": "127.0.0.1", 
  "control_port": 38711, 
  "hb_port": 55673, 
  "signature_scheme": "hmac-sha256", 
  "key": "e1b50704-ff77b3f8d317f32d3d8675ee", 
  "kernel_name": "", 
  "shell_port": 57211, 
  "transport": "tcp", 
  "iopub_port": 38681
}