{
  "stdin_port": 53575, 
  "ip": "127.0.0.1", 
  "control_port": 54089, 
  "hb_port": 48639, 
  "signature_scheme": "hmac-sha256", 
  "key": "1836afe3-5f5d42b8d7bd10fabbd1520e", 
  "kernel_name": "", 
  "shell_port": 47153, 
  "transport": "tcp", 
  "iopub_port": 39371
}