{
  "stdin_port": 50909, 
  "ip": "127.0.0.1", 
  "control_port": 40841, 
  "hb_port": 35987, 
  "signature_scheme": "hmac-sha256", 
  "key": "562cf404-393b7d78f72a6a8fb8129b92", 
  "kernel_name": "", 
  "shell_port": 44253, 
  "transport": "tcp", 
  "iopub_port": 40069
}