{
  "stdin_port": 53497, 
  "ip": "127.0.0.1", 
  "control_port": 39359, 
  "hb_port": 48391, 
  "signature_scheme": "hmac-sha256", 
  "key": "15df7aad-4e7d4106634a8cd91e95cd08", 
  "kernel_name": "", 
  "shell_port": 35745, 
  "transport": "tcp", 
  "iopub_port": 56739
}