{
  "stdin_port": 34437, 
  "ip": "127.0.0.1", 
  "control_port": 43679, 
  "hb_port": 49283, 
  "signature_scheme": "hmac-sha256", 
  "key": "d6c7e87d-26271ed9b9e456e422de7451", 
  "kernel_name": "", 
  "shell_port": 44833, 
  "transport": "tcp", 
  "iopub_port": 58767
}