{
  "stdin_port": 55151, 
  "ip": "127.0.0.1", 
  "control_port": 47019, 
  "hb_port": 40329, 
  "signature_scheme": "hmac-sha256", 
  "key": "66ea4487-de636862781dbf277b1b8105", 
  "kernel_name": "", 
  "shell_port": 47313, 
  "transport": "tcp", 
  "iopub_port": 34905
}