{
  "stdin_port": 42035, 
  "ip": "127.0.0.1", 
  "control_port": 59351, 
  "hb_port": 36115, 
  "signature_scheme": "hmac-sha256", 
  "key": "63a2d2b2-5a5cc390fe19686efe2972e5", 
  "kernel_name": "", 
  "shell_port": 55097, 
  "transport": "tcp", 
  "iopub_port": 47767
}