{
  "stdin_port": 53231, 
  "ip": "127.0.0.1", 
  "control_port": 60011, 
  "hb_port": 46355, 
  "signature_scheme": "hmac-sha256", 
  "key": "64582c54-e8af289e2118efc63ad58ae9", 
  "kernel_name": "", 
  "shell_port": 36989, 
  "transport": "tcp", 
  "iopub_port": 41885
}