{
  "stdin_port": 36763, 
  "ip": "127.0.0.1", 
  "control_port": 36043, 
  "hb_port": 47975, 
  "signature_scheme": "hmac-sha256", 
  "key": "50c05de3-eeef73250d944eaa7616fe68", 
  "kernel_name": "", 
  "shell_port": 50491, 
  "transport": "tcp", 
  "iopub_port": 39159
}