{
  "stdin_port": 33311, 
  "ip": "127.0.0.1", 
  "control_port": 53217, 
  "hb_port": 36797, 
  "signature_scheme": "hmac-sha256", 
  "key": "a8c02481-0dcc463213a08a3a5a278bcf", 
  "kernel_name": "", 
  "shell_port": 56013, 
  "transport": "tcp", 
  "iopub_port": 46897
}