{
  "stdin_port": 54103, 
  "ip": "127.0.0.1", 
  "control_port": 39865, 
  "hb_port": 56945, 
  "signature_scheme": "hmac-sha256", 
  "key": "d6d3a2c1-35b943f5381dfdbd0a51386f", 
  "kernel_name": "", 
  "shell_port": 51757, 
  "transport": "tcp", 
  "iopub_port": 33413
}