{
  "stdin_port": 38977, 
  "ip": "127.0.0.1", 
  "control_port": 53425, 
  "hb_port": 56771, 
  "signature_scheme": "hmac-sha256", 
  "key": "d86f54ed-8054accb81ea938111df0a8d", 
  "kernel_name": "", 
  "shell_port": 45167, 
  "transport": "tcp", 
  "iopub_port": 55279
}