{
  "stdin_port": 51291, 
  "ip": "127.0.0.1", 
  "control_port": 60095, 
  "hb_port": 38919, 
  "signature_scheme": "hmac-sha256", 
  "key": "bc587ff9-a8424145d7d85910133c6963", 
  "kernel_name": "", 
  "shell_port": 38609, 
  "transport": "tcp", 
  "iopub_port": 49509
}