{
  "stdin_port": 56991, 
  "ip": "127.0.0.1", 
  "control_port": 53023, 
  "hb_port": 42707, 
  "signature_scheme": "hmac-sha256", 
  "key": "524b8012-687c9afbb8d23f4e5090540d", 
  "kernel_name": "", 
  "shell_port": 35737, 
  "transport": "tcp", 
  "iopub_port": 37657
}