{
  "stdin_port": 56267, 
  "ip": "127.0.0.1", 
  "control_port": 32837, 
  "hb_port": 40859, 
  "signature_scheme": "hmac-sha256", 
  "key": "d863ec3f-0dd5bbcab48045827dd90a51", 
  "kernel_name": "", 
  "shell_port": 45623, 
  "transport": "tcp", 
  "iopub_port": 59541
}