{
  "stdin_port": 39439, 
  "ip": "127.0.0.1", 
  "control_port": 58617, 
  "hb_port": 40107, 
  "signature_scheme": "hmac-sha256", 
  "key": "e73dd322-2ef41c67a792d56c5db04019", 
  "kernel_name": "", 
  "shell_port": 57959, 
  "transport": "tcp", 
  "iopub_port": 44789
}