{
  "stdin_port": 51583, 
  "ip": "127.0.0.1", 
  "control_port": 47893, 
  "hb_port": 53535, 
  "signature_scheme": "hmac-sha256", 
  "key": "3bb19770-a48df4852249a09c11dd6d94", 
  "kernel_name": "", 
  "shell_port": 48641, 
  "transport": "tcp", 
  "iopub_port": 33283
}