{
  "stdin_port": 37803, 
  "ip": "127.0.0.1", 
  "control_port": 44061, 
  "hb_port": 45985, 
  "signature_scheme": "hmac-sha256", 
  "key": "c52e9f64-422b7a2128b34073d03290ab", 
  "kernel_name": "", 
  "shell_port": 41231, 
  "transport": "tcp", 
  "iopub_port": 60901
}