{
  "stdin_port": 52411, 
  "ip": "127.0.0.1", 
  "control_port": 37135, 
  "hb_port": 36205, 
  "signature_scheme": "hmac-sha256", 
  "key": "9b3ebe17-aff6e003c2552fac9035d254", 
  "kernel_name": "", 
  "shell_port": 45659, 
  "transport": "tcp", 
  "iopub_port": 39557
}