{
  "stdin_port": 56089, 
  "ip": "127.0.0.1", 
  "control_port": 40993, 
  "hb_port": 36805, 
  "signature_scheme": "hmac-sha256", 
  "key": "f74a3817-d865995cc409aac2e1a16715", 
  "kernel_name": "", 
  "shell_port": 57873, 
  "transport": "tcp", 
  "iopub_port": 56309
}