{
  "stdin_port": 36293, 
  "ip": "127.0.0.1", 
  "control_port": 44719, 
  "hb_port": 47431, 
  "signature_scheme": "hmac-sha256", 
  "key": "13b99f67-ffdda0d9f5ab439eb5b3b71f", 
  "kernel_name": "", 
  "shell_port": 52415, 
  "transport": "tcp", 
  "iopub_port": 43725
}