{
  "stdin_port": 36681, 
  "ip": "127.0.0.1", 
  "control_port": 48221, 
  "hb_port": 48609, 
  "signature_scheme": "hmac-sha256", 
  "key": "4cbe984f-debf53883f767da7f42dc935", 
  "kernel_name": "", 
  "shell_port": 39395, 
  "transport": "tcp", 
  "iopub_port": 36477
}