{
  "base_url": "/", 
  "hostname": "172.17.0.2", 
  "notebook_dir": "/home/sage", 
  "password": false, 
  "pid": 11, 
  "port": 8888, 
  "secure": false, 
  "token": "10bb8860f7456c63a4b41c7755a4265f6a54c2e9a5f25540", 
  "url": "http://172.17.0.2:8888/"
}